2.704678706063985
-0.891681061578178
2.705083995565361
-0.8911314619827373
2.705787446791961
-0.8912437156105018
2.706444212657766
-0.892225690372154
2.70662106175675
-0.8922961554970317
2.7050852179771647
-0.8919967812481953
2.7041377721807565
-0.8905918791265954
2.7035001746524308
-0.8898190991482984
2.703290540417304
-0.8895650185841895
2.7035612201679857
-0.8887524419302378
2.7034157514743358
-0.8883321270407457
2.702940683666536
-0.8899824578562101
2.7025901070846516
-0.8904699207560675
2.703319973971124
-0.890366440137911
2.703365315391394
-0.8904836377960156
2.7040599140367085
-0.8915196595310941
2.7040043079602794
-0.8923793146530365
2.704085424182714
-0.8930140002021183
2.7041249062527752
-0.8933229236031834
2.7038940553169737
-0.8944554933209549
2.703865286243109
-0.8948903683091617
2.702806212365655
-0.8937830440094817
2.7022381312387194
-0.893466416845565
2.7022381312387194
-0.893466416845565
2.704433629797524
-0.8900296302209718
2.7056844217941984
-0.8891539555508063
2.706660986522878
-0.8880496925683452
2.7074121264989857
-0.8894231821882292
2.7094415837541646
-0.8913742945904374
2.7098067306073985
-0.8915741125560512
2.716415384586509
-0.8905381320151506
2.720737276790698
-0.8909372205721477
2.7235202017302
-0.8910256125126779
2.724676508418625
-0.891062339407675
2.742219226383962
-0.8905321320394266
2.7558265867604312
-0.8893891941969971
2.7732515290620245
-0.8865762675232239
2.787837568453998
-0.8846185179814542
2.8065613111714915
-0.8837555338876042
2.8145588264751424
-0.8830356169442769
2.8391254724197363
-0.8802387985385324
2.855935246460744
-0.8782099070014959
2.872286540944446
-0.8759534733742175
2.8894201070482555
-0.8730241908968772
2.906599057936258
-0.8705288708034119
2.919287745546949
-0.8686757736437438
2.9387146596022697
-0.8655770706030518
2.954328985862582
-0.8641025195255234
2.9757395464368708
-0.8613902791165488
2.991322863715455
-0.8591432914000736
3.0094937731926383
-0.8572501346272974
3.026466910498729
-0.8552793070251509
3.0444629788901487
-0.8531897022764049
3.0574249512272527
-0.8485561894159325
3.0657942106252345
-0.8475258485948957
3.0839550022853737
-0.8416472140998914
3.1001960823179453
-0.8382444042178617
3.1151336550780275
-0.8349192992173743
3.134522873634412
-0.8309063089877824
3.1431921465293016
-0.8281592499720213
3.1523939008357718
-0.8253388918369916
3.1523939008357718
-0.8253388918369916
3.174675710020212
-0.8181905978846052
3.180598226083596
-0.8164606217588264
3.1921183394116843
-0.8100178908542147
3.201454532291864
-0.8051067218113324
3.216506699771953
-0.7993145180278439
3.2276018070739454
-0.7947650311313325
3.2302694695561085
-0.790608376468174
3.2457499434834176
-0.7847667506696395
3.253090235311295
-0.7816472488889737
3.2661667133064523
-0.776805950196078
3.2734251326705888
-0.7754946561488594
3.2758712637012675
-0.7746888756901371
3.287043687971984
-0.7708090756388709
3.293542532762813
-0.7687732913396308
3.305163727861779
-0.7646719784895372
3.3138586945795874
-0.7627215941541529
3.318155219617061
-0.7614683481563114
3.325155665414347
-0.7562657842429188
3.3373339020318253
-0.7458400884528784
3.3457375117460426
-0.7399205266785575
3.3496495142589477
-0.7371648846004557
3.361760879681581
-0.7313077528442297
3.368878557489195
-0.7295905982907221
3.3737755070723408
-0.7274846234664312
3.3825770700962523
-0.7242267454169966
3.384834664223962
-0.7207621311687469
3.3901977366308063
-0.7183451617464187
3.393358097042379
-0.7166582730385107
3.404022362893353
-0.7126029856018075
3.4100912793423435
-0.710046135834518
3.416424188602155
-0.707100740378333
3.4195320275726955
-0.7057366538173067
3.4299633141798282
-0.6980113348468893
3.436725678466018
-0.6938642702469171
3.443614608202172
-0.6903399150925906
3.452607671316597
-0.6830313011318689
3.4570089483396895
-0.6799929057547064
3.461499379054434
-0.6755997750032671
3.4737433666646584
-0.6664472751295127
3.4820847239941335
-0.6607227493337829
3.489531023587225
-0.6553174916731189
3.5052010851670694
-0.6448116350100941
3.5116367454225315
-0.640352077155846
3.5295500818222387
-0.6310913730333094
3.54100340595706
-0.6252607765142574
3.543954974035792
-0.6235967853667433
3.5569713549666653
-0.6117973667655302
3.5697468026947274
-0.6033841893407816
3.586042807164236
-0.5900829522006121
3.600316606411762
-0.5771134059108349
3.613332484170268
-0.5652588610070891
3.6171961058549345
-0.5619291130469592
3.6335776592755513
-0.5427592962743827
3.6478094407578188
-0.5260686693415123
3.6616219503393355
-0.5116154724013131
3.665082286885206
-0.5079374351387773
3.677551320907505
-0.4910413920952577
3.695469869444074
-0.4752323387312229
3.7075639359004615
-0.46684368060490344
3.717666975962036
-0.45759844578827635
3.7334999607041266
-0.44117905267467755
3.734611036183085
-0.4400805319646375
3.7489554084331838
-0.4179309811031071
3.7489554084331838
-0.4179309811031071
3.7708205973153
-0.3919584885124101
3.7795447437455563
-0.37412312013322274
3.7938174009325536
-0.3555845871610231
3.800483966001146
-0.3435165233487402
3.810799997356951
-0.3241551719892105
3.815428787925207
-0.31659350038579126
3.8218509694609564
-0.30058469857371745
3.829194778212801
-0.285958161208018
3.8412097583624947
-0.2630782054607018
3.8478957814862316
-0.25063898550198926
3.8478957814862316
-0.25063898550198926
3.8578089497162
-0.22750539950254678
3.8671158195930255
-0.2115472161071088
3.8761535188992693
-0.1908311434308676
3.884408183759318
-0.16639941338645103
3.88919168657839
-0.14898815047469138
3.894817282042707
-0.1332061556441746
3.8974657544396214
-0.12506229577073902
3.9035836263695263
-0.10282442340008136
3.9086885778432174
-0.08698151154206568
3.9131121503848414
-0.07310604796779518
3.9163303031034857
-0.06312154781237622
3.9246352902867807
-0.04436862479434578
3.927003029719724
-0.026939034550036878
3.9294699073752914
-0.018111634904500518
3.9303927007687975
0.012527642008062445
3.9314117097652863
0.02051991203582537
3.9330459807604026
0.03155590199177316
3.9333261828463826
0.048386834604361995
3.934787201592118
0.06357954250833953
3.936698586767824
0.07187366447941423
3.942464324311051
0.09191568073229905
3.9463460455021977
0.10533614097524724
3.9514962619431087
0.12616681733976076
3.952544935688183
0.13063040370362267
3.951530590015605
0.15588828690419843
3.9484620098754175
0.17078064071700017
3.9484620098754175
0.17078064071700017
3.9460709430984258
0.20414172487470328
3.9439290139768657
0.22889456360532456
3.945076705736179
0.24559251522038095
3.94261324710461
0.26460251724478
3.94261324710461
0.26460251724478
3.9404932801531483
0.2788653813304861
3.938500812898576
0.29316557440560775
3.941646250467971
0.31584558315348
3.941646250467971
0.31584558315348
3.941062584359506
0.33648830398780627
3.941062584359506
0.33648830398780627
3.929504491381151
0.37590854020790043
3.929504491381151
0.37590854020790043
3.9191988983663997
0.41951567472152973
3.9177155034232047
0.42880184254512954
3.916710028501325
0.4418926824512993
3.912541303070292
0.4607771127413577
3.912396040093171
0.4615527884979015
3.907611530168137
0.47902202656180315
3.902872497134532
0.4955284451240317
3.8980074327579466
0.5144737826430178
3.8905082431094815
0.5268504963117503
3.88434066070201
0.5434848551308716
3.8771233818490085
0.5575021794682152
3.8771233818490085
0.5575021794682152
3.8692807168342735
0.5891747496532006
3.8660674504116157
0.6009452454318892
3.8634819164189222
0.6108989940343176
3.857730672687384
0.6241463756980393
3.854343067200584
0.6336672279872936
3.8532181487729265
0.6368288069341094
3.8345391873104715
0.6631287667606606
3.825467172622506
0.6787836457353585
3.819308345935799
0.6910869867157289
3.8152389025341864
0.6985888514674549
3.8050437144577347
0.7200305072054417
3.8014361028756323
0.7321336051277368
3.793386681617545
0.7452358532676654
3.7919929651610893
0.7479793791203492
3.7760693595999553
0.7667878867823098
3.7695710353344776
0.7770788053456633
3.7628697486213962
0.791893474954443
3.760887204803067
0.7953816218483979
3.7441012707777817
0.8176083312451775
3.738439712240942
0.8259727424512925
3.72964896770434
0.83896022666321
3.7167866377214205
0.8447219351770027
3.7073921548025575
0.8585117114204591
3.693778266301372
0.8720457944100163
3.687085820350544
0.8835793769977976
3.682537362542787
0.8957043828175556
3.6742823033070526
0.9078983001259336
3.672108482639823
0.9112394974851795
3.6638876740379094
0.9221785234510881
3.647218471343094
0.9425816108756827
3.6343298313053305
0.953491658005945
3.619146682362847
0.9624242876700556
3.6055527869702946
0.9684742571993011
3.5906567861076355
0.9773602363550601
3.583586251665886
0.9818517374327732
3.5691260422367854
0.9930471886840394
3.5585126266546054
1.0048260261455266
3.5470182244912687
1.0158496707955464
3.5446791907701307
1.017950321739629
3.5281572033067823
1.0330904722098055
3.5281572033067823
1.0330904722098055
3.52212252965344
1.0415992174420863
3.5057742094948368
1.0522648354420667
3.4899845947892163
1.0673624850730934
3.472430386634294
1.076365526788933
3.4601940007229564
1.0851272045353109
3.445992104028973
1.092141822743903
3.429387535255122
1.0969308352402023
3.4099699571740043
1.1024191772084913
3.3945026878717464
1.109071045924523
3.3871966898269648
1.1174303456734345
3.376051914997331
1.1231585666107045
3.3737614875302393
1.1303267763703502
3.364271302114984
1.1416782443494866
3.342626804560978
1.1571304794555657
3.3308321261464213
1.1611937316270273
3.317748662075781
1.1633850053373007
3.3138464491347874
1.16513041156743
3.2984250900567
1.16580052107472
3.272640240954839
1.1683039869368332
3.256592426894615
1.1780413708320583
3.2426368193365667
1.184748599973595
3.2313672409903242
1.192473537561341
3.2238793177631075
1.1961582502412411
3.2005181005420655
1.206296301224474
3.189984345568278
1.210197141805511
3.1835587989083325
1.2130004029953119
3.1699476753116365
1.2164666906539812
3.1484525192997377
1.2184853130186128
3.138899211544559
1.220592180439043
3.1211160058039455
1.2238453642224345
3.119067266850821
1.224261483985555
3.100961419035288
1.2257299458191737
3.0775084499235215
1.230685238828951
3.0618629434918745
1.2368691386661452
3.047008548554106
1.2362704287810478
3.047008548554106
1.2362704287810478
3.0198433244046274
1.2404318151000486
3.012550494949776
1.2415646988009081
2.9933441414058355
1.2440839722405932
2.9758440835170257
1.2448810606091616
2.9604597066097496
1.2452285633351297
2.956601618157482
1.2455008035182913
2.932135712442514
1.2417395931501192
2.9250160256254936
1.244599298354649
2.9094650345815767
1.2452708858954376
2.9094650345815767
1.2452708858954376
2.8826126870153566
1.2419980673591668
2.8764458008810196
1.2396546804257
2.851106257814086
1.2389801789908415
2.838549769002875
1.243655531791307
2.822511103445932
1.2470315858457273
2.8072824751597487
1.247136779538939
2.7915120512088603
1.2484231921206521
2.780794712018152
1.2479578265629572
2.7587808040976003
1.2432075969026788
2.7422059441635542
1.2350080635803296
2.729097145605271
1.231731555858918
2.7131124255421275
1.2302945965882608
2.700601093628789
1.222406822866549
2.6873592510955766
1.2193169892753755
2.674027771300766
1.2168897670789653
2.659000531155572
1.214026257358042
2.6522180915018803
1.2124947206040844
2.627536750926498
1.213502082725868
2.6092739130755422
1.2096642871859804
2.5901481662043055
1.2085528000181736
2.572608179721419
1.2067691443454476
2.554892904665026
1.1964996546465545
2.545774043415369
1.1942649794090792
2.5235733946889614
1.18638032013608
2.5033445331714894
1.182960807194184
2.4862614495975772
1.1789864400338872
2.4649560144021314
1.1738748900870384
2.4507624224900937
1.1715134548349324
2.4316805499054164
1.1709513708610833
2.411660652230002
1.1664201070362008
2.4027857770175913
1.1619814042684076
2.384881216285164
1.157224637297928
2.372689194582133
1.1479626363793676
2.357641640965271
1.1387654495078516
2.338517137565593
1.1333224835754718
2.334655749717169
1.1303779451303044
2.306389473144097
1.1176619710963096
2.287383453900849
1.1132466586920944
2.267153034100708
1.106319011438412
2.2474528568766714
1.0969068680657816
2.2328384608192633
1.089080654890621
2.2233164195193162
1.0847454058119124
2.203176748501973
1.0689560509781852
2.189201365108921
1.059346558365362
2.17076402809758
1.0442389339101519
2.1564925921976297
1.0369389197199905
2.1438570403125077
1.0289323715144172
2.120024012187389
1.0185194929701193
2.1008793921131814
1.0093182140147188
2.1008793921131814
1.0093182140147188
2.0670275471215556
0.9882443063617444
2.050171123559984
0.972929437588491
2.0249281349715704
0.9485343992955376
2.0249281349715704
0.9485343992955376
2.009219415143371
0.9303541905029457
1.991407641501875
0.9149026584822447
1.9777281769703832
0.9101299577879619
1.9647341060763233
0.899922555940088
1.9518784243342546
0.8849098242123473
1.9419668620183739
0.8680925216845786
1.9291118091401387
0.8530150732265548
1.913677711323538
0.8404977611464298
1.9038130122243235
0.8260826158317341
1.8862434887223605
0.8036376032114708
1.873836183636835
0.7883678039730874
1.864368069635594
0.7762571528958385
1.8563450299449697
0.7678864918200762
1.8369568361675923
0.742697477624317
1.8253117123651112
0.7301015773959852
1.8193442565211233
0.7183146654373193
1.8087551943048217
0.70357708128154
1.8100168141966693
0.6899535003984226
1.8008278397302495
0.6725683370884513
1.7912909584128633
0.6599741525726049
1.7785244839313512
0.6404159787217935
1.7713717445601667
0.6288494039558531
1.7579587989310586
0.609768260448056
1.7484116449517466
0.5970559443350706
1.7352778741888009
0.5779244935949135
1.731342123323481
0.5516382835118241
1.7258581316978465
0.538989612365325
1.7235484774812408
0.5232180983804524
1.7222920991899107
0.5127007138544959
1.7178144928481742
0.49970996666575784
1.7124251536525004
0.4789672965680827
1.7117231611776502
0.4764814741285308
1.6994685245714305
0.4470227445610844
1.6994685245714305
0.4470227445610844
1.6909801035977516
0.42361260099878506
1.6815499361762192
0.4004311225867696
1.6815499361762192
0.4004311225867696
1.6708730585461629
0.35939741096075317
1.6662007482062404
0.32794271606574
1.6697961775310346
0.3249649338263605
1.6676170176016831
0.30622186906758553
1.666179391726832
0.2936540800036631
1.6645120884435136
0.28026780373834326
1.663066775499141
0.26267931495923946
1.661804182845187
0.24983478419435534
1.6581892154775246
0.2341442586721877
1.6564819898945344
0.22339786875887457
1.6506650280751147
0.20199328723380283
1.6467970130971483
0.18195833695245878
1.645274900549149
0.17441651125796576
1.6458622090726434
0.15108108638792395
1.6453911929923928
0.138309704249303
1.6549995840034617
0.11234547541450746
1.656838566478819
0.09983160746323716
1.6571337697044297
0.08000136538213909
1.6580342329992304
0.0722921642902915
1.658724097449332
0.05860317402952231
1.6566594970680302
0.04620622788635609
1.6568549359730924
0.0343672072168234
1.6596091138389975
0.017329866648255532
1.6604724915957485
0.00728427786100827
1.6616072618121818
-0.007253995706061889
1.6638190681249978
-0.028266612561939075
1.6699475078002228
-0.045590070961044615
1.6721387434957502
-0.06487889685765258
1.6733497635813785
-0.07252130733342865
1.6752589859857163
-0.08479518754560245
1.67717666625038
-0.0969587678889473
1.6793403306075514
-0.11310234674772879
1.6793403306075514
-0.11310234674772879
1.6800321819241102
-0.13465122395457052
1.6800321819241102
-0.13465122395457052
1.6920120462952806
-0.1637276603218457
1.6920120462952806
-0.1637276603218457
1.703585265919174
-0.21461235612694196
1.7056462061380744
-0.2232233498160482
1.7077528532986834
-0.23468238195170588
1.712257888784868
-0.25773496127349
1.7143044979427062
-0.2628508753415698
1.7190118011854978
-0.2824783103369261
1.721421831336381
-0.29266826164668763
1.7289761937948036
-0.30208591635538456
1.7406666464881027
-0.31501646565079416
1.7406666464881027
-0.31501646565079416
1.7544330395127328
-0.3364918870793717
1.767392935385116
-0.3664166222789919
1.7693900992608085
-0.3802678658604863
1.7743774732542426
-0.4022497294973787
1.7823263105263534
-0.4284361586348613
1.7823263105263534
-0.4284361586348613
1.7928153594989653
-0.4562177989470528
1.8023602644223744
-0.46353045365453205
1.8086078479538708
-0.4760144692160509
1.8188951794052275
-0.4852773710245572
1.832443997228845
-0.49979663566392757
1.838355531002747
-0.5130054583533671
1.838355531002747
-0.5130054583533671
1.8708048053106423
-0.5380037071283383
1.8708048053106423
-0.5380037071283383
1.897968860870094
-0.5531806372057244
1.9066242542660032
-0.5733498825476293
1.9148955065168503
-0.5890426847455261
1.924759315699171
-0.601724949643523
1.924759315699171
-0.601724949643523
1.941731608486096
-0.6172821036196725
1.957449932007464
-0.6305811995382777
1.9736849993634307
-0.6476681428937131
1.9911118630872295
-0.6628586076519624
1.9911118630872295
-0.6628586076519624
2.010512480300666
-0.6788644969192641
2.0258173851085544
-0.693352752048103
2.0326572509229135
-0.6995899762815176
2.039087059822329
-0.7020121906547059
2.058929430755412
-0.7144296565676195
2.067395110082939
-0.7203219878483966
2.0793341722083647
-0.730603577381393
2.0982968167532583
-0.7411864538355072
2.1178027615708097
-0.7580527202105029
2.1378442728898825
-0.7739944568454007
2.1441498901031983
-0.7788575532576537
2.156143860724467
-0.7825147617668342
2.172463533521182
-0.7900415441738102
2.1780886877179064
-0.7918369510255068
2.19070789770894
-0.7973338718040296
2.1967603458974923
-0.8003040796741404
2.2148399791581674
-0.8076874990326096
2.2288549415877568
-0.8125355521145408
2.2480138403469265
-0.823049689652232
2.2623667014212985
-0.8343648158682972
2.2748704852793904
-0.841823288711977
2.2828402002148445
-0.8467584040419889
2.2987405450263347
-0.8493294796398034
2.3171012719329727
-0.8539455152743303
2.3329016427074776
-0.8606460105970306
2.3527653593674454
-0.8631614056309153
2.360204075255691
-0.8650967489628318
2.3780007164763575
-0.8686019470915325
2.3780007164763575
-0.8686019470915325
2.3780007164763575
-0.8686019470915325
2.4087443685097485
-0.8805766103617925
2.4087443685097485
-0.8805766103617925
2.4087443685097485
-0.8805766103617925
2.4087443685097485
-0.8805766103617925
2.4788038023699874
-0.898458482166657
2.4788038023699874
-0.898458482166657
2.4788038023699874
-0.898458482166657
2.4788038023699874
-0.898458482166657
2.5250737709314803
-0.8935710976063771
2.5779871602484232
-0.9064436586425906
2.587127928845361
-0.9084948287782593
2.6100138553378094
-0.9177161035155614
2.6189998328625888
-0.9204017666142941
2.63483175978653
-0.922799001664324
2.6569721468379717
-0.9279262881896275
2.6757041376356554
-0.9293157490637384
2.693235010052579
-0.9345689527534515
2.706551197426638
-0.9376122832316099
2.7267427947345735
-0.942567681255267
2.7434122568063852
-0.9469796615992147
2.7591765377269626
-0.9505242872113254
2.7764807586555995
-0.9546377692732043
2.778833474585626
-0.9584980774814305
2.7981131082215485
-0.9592730537862115
2.8110988401648376
-0.9610544226610768
2.818144857004046
-0.9569942985418853
2.8231285855851853
-0.9567311671636678
2.8252061007721694
-0.9473191746670684
2.8247231207862624
-0.9471890756932289
2.827501332380864
-0.9462830448343229
2.8283958770772397
-0.949609090293983
2.8289361606177845
-0.9498098437168868
2.8375483675314266
-0.9560575370151427
2.8394836367706744
-0.9571681139975403
2.8458844503499097
-0.9596955757444502
2.848808240019222
-0.9590540550442894
2.8518458206625814
-0.9556980885630189
2.853539594754408
-0.9551767770943292
2.8540462717480497
-0.950231437583381
2.852965346861669
-0.9493096723422141
2.848881291611393
-0.9498783356964232
2.845618900387307
-0.950011018304531
2.845519989209067
-0.9502144725633208
2.8441867334910538
-0.9501111310213147
2.8423517587245777
-0.949402410735257
2.841637601466191
-0.9492500494432553
2.841637601466191
-0.9492500494432553
2.8420373331777045
-0.9525116863830316
2.8422483829283434
-0.9537869555533613
2.8420570166544845
-0.9546770685174816
2.8420570166544845
-0.9546770685174816
2.8439025983420922
-0.9522322894271005
2.8428087390969656
-0.9512424485968618
2.842540315226283
-0.94962884743595
2.8414581474711564
-0.9482922057930754
2.8388629250722017
-0.9477673148027775
2.839238545720518
-0.9478508009387605
2.838245379444578
-0.948297512284331
2.837805881318757
-0.9483144068834056
2.8369515165641888
-0.9483472492304917
2.840241056199697
-0.9469120173593752
2.8414071290776874
-0.9487059450882647
2.841182496060622
-0.950029585527021
2.841463005929257
-0.9509508768215607
2.8436041372972296
-0.9518319923373404
2.842410797401365
-0.9529150524114842
2.841113656822537
-0.9523908649078634
2.840900244592925
-0.9513878019721647
2.8406112058420834
-0.9511305129965683
2.8410956679279593
-0.948748749968007
2.8424366076656926
-0.9476451014427146
2.843372889758778
-0.9475590843341242
2.843687930223823
-0.9489248693233951
2.8440895267060085
-0.949214483875645
2.8439014639783085
-0.9500506074258062
2.8433838407359366
-0.9500738057063831
2.842011022135476
-0.9494871433915241
2.8411787483211293
-0.9505588205177332
2.8404120628395866
-0.9510801812102689
2.8400464349346475
-0.9520392586765012
2.839889655788175
-0.952958442004098
2.839777291316303
-0.9531660484080069
2.839708011365263
-0.9497653372592189
2.839815193755459
-0.948794302159484
2.8403680329677696
-0.9496032185574564
2.841552458209275
-0.9491069321915142
2.8423069577345426
-0.9497423452770338
2.8417878982734366
-0.9510130458493167
2.84197736682986
-0.9523708654242666
2.8405094956867774
-0.9513897723238096
2.841566916410854
-0.9505811232779571
2.84160116907606
-0.9505362438321302
2.840550268889267
-0.9488630372603996
2.840194721850116
-0.9481377461824705
2.841073914835855
-0.9466311755857941
2.8420423630878857
-0.9466390665875787
2.842638603540495
-0.9488243439763662
2.842893137015765
-0.949165652608493
2.8439773582076127
-0.9507936206391194
2.841679445592832
-0.9509021980877406
2.839396934863931
-0.951978641372525
2.840086597967294
-0.9514731414233008
2.8380444424844087
-0.9532538602018373
2.8373113800623164
-0.9507779847740409
2.838577938098986
-0.950907261326156
2.841462869181269
-0.951845754604147
2.842537952536139
-0.9521760521371893
2.843722833604772
-0.9524206934829305
2.842556126848369
-0.9543241224279772
2.841365869717755
-0.954241399095807
2.83967624439554
-0.9530704934927869
2.8397702102232483
-0.9524170485968473
2.8395620451383734
-0.952210840735467
2.8382745238856963
-0.9514425249706883
2.8406149920276254
-0.9510045007199808
2.840500096533134
-0.9503542543426706
2.8406277683676446
-0.950068372830922
2.8422815752765525
-0.9515749427903539
2.842703774043845
-0.949903578827515
2.841299827634303
-0.9484460621216935
2.840870056343173
-0.9503260718802379
2.839445014743422
-0.9495060725189708
2.838639757155647
-0.9492931699946741
2.83760211808174
-0.9497598819350357
2.838346049661677
-0.9497432046035412
2.8385892887755357
-0.9490614514021947
2.8385645752674216
-0.948918277111905
2.840902493188059
-0.9489310391520003
2.839854326978881
-0.9493635771176443
2.840116026382473
-0.9491542211360884
2.840173552265689
-0.9502271914680276
2.8388131901377927
-0.9501056022850067
2.8384517225566186
-0.9502752339584767
2.838529250998817
-0.9514208868125771
2.8404613865989727
-0.9509050316629417
2.8404613865989727
-0.9509050316629417
2.839885174458078
-0.951009459446173
2.8397752009621264
-0.9511137994911872
2.8390627315586006
-0.9489047152811307
2.8366314786336773
-0.9482238156809151
2.837157201985812
-0.9488694133291272
2.8372650275603197
-0.9499682063640282
2.837137207585774
-0.9503017597742284
2.8392089421617075
-0.9522867454611916
2.841167458525209
-0.9501687369507054
2.841081600374247
-0.9504138676394607
2.8415001530768276
-0.9514966431680488
2.8419421944768652
-0.951945359191779
2.8411016813224115
-0.9510827220157956
2.8333791191056847
-0.9537688626708374
2.832006349805105
-0.9535540726518977
2.831435268393581
-0.9532348785378375
2.8295107032649187
-0.9524227958497608
2.829165592177072
-0.9537713188418833
2.8285664536528587
-0.9529931447605584
2.829260223176937
-0.953152978577807
2.8293095171240066
-0.9542684871957087
2.829276781346302
-0.9548359050426951
2.8319613277230093
-0.9547470106663893
2.834816762120542
-0.9546615280996686
2.835248790709258
-0.9529482020677411
2.836499051061552
-0.9521984257399194
2.835811052026947
-0.9541295827222929
2.8325926490731237
-0.9550602060506935
2.8311167097631342
-0.9523521996821117
2.830120695891438
-0.9534545349519558
2.829734895112042
-0.9536664146127227
2.83053976885122
-0.95181117122898
2.82970262806673
-0.9537862646168883
2.830203142757191
-0.9519110676010515
2.8301931403960197
-0.9516858334076514
2.8332910352274663
-0.9537532299275997
2.8344084466550252
-0.9543824904850654
2.834493088423452
-0.9539268056037568
2.8327110961100823
-0.9534224527008713
2.831270321984833
-0.9558445110029719
2.8308786817193994
-0.9562927967133479
2.8300893798022733
-0.956844179524724
2.8285455505033212
-0.9558474474040666
2.829176162066572
-0.9550671992741975
2.8303542147181884
-0.952524248718441
2.8308599617918686
-0.9507336287391349
2.832380691255323
-0.9487678128016869
2.8330751460398127
-0.9456027144087871
2.8331214927785275
-0.9494805778396836
2.831841412497485
-0.9501627390671137
2.830433416825467
-0.9503234968238102
2.8307372720060697
-0.9521831095761388
2.831995612411727
-0.9540315785942923
2.830809873591966
-0.9567823541188359
2.8302112526407095
-0.9577806515887771
2.829949462859873
-0.9585454766853765
2.8302781799342154
-0.9605784438340339
2.830657066700305
-0.9588773467348096
2.832115709079631
-0.9542189871268034
2.832308694724386
-0.9523956333287783
2.8327410075084853
-0.9506228651772951
2.831848632291816
-0.951296242000614
2.82860071279458
-0.9506840706772784
2.8288787213652364
-0.952358444764416
2.831883329505985
-0.9543867804108153
2.832431550294903
-0.9549343186970123
2.8355258442840365
-0.9567307525518249
2.835468270735201
-0.9585673225691499
2.8352437770123453
-0.958553349791359
2.835572644559398
-0.9591402073659112
2.831970697654714
-0.9550384086159933
2.829035580214443
-0.9533991691867469
2.8303796224740028
-0.9518242543622055
2.8307394172969014
-0.9515217420689086
2.830356697167149
-0.9537487863249967
2.8297912623135613
-0.9554631111642671
2.830579247355918
-0.9570581050263086
2.831836493549644
-0.9591496348049163
2.832413683892984
-0.9573927579797383
2.8330164571056957
-0.9568920228290232
2.833262167111685
-0.9568286392307143
2.834960537142429
-0.956780608109305
2.8346915487391744
-0.9558435953409888
2.8338785537486832
-0.9560643895077539
2.8338523322641405
-0.9560288964463625
2.833530204490771
-0.9543964867830255
2.830380853174297
-0.954881821501008
2.8292490928228435
-0.9556431111363746
2.8283747254084
-0.95574833708748
2.8271972966024683
-0.9558900350326648
2.8278397585426585
-0.9560644811869501
2.8277443413345744
-0.9547876103655613
2.8306959572431447
-0.9529362640414245
