0.021457502590806008
0.008885629968007668
0.021185730680491448
0.008360788489196509
0.02134404991591705
0.00868917056110259
0.02124905265400106
0.00892524815822456
0.02134705003615611
0.008801720001523213
0.021338384919781392
0.008790880401883262
0.0213328356273554
0.008781107073516124
0.02142313617659088
0.008834347731292786
0.021453235561684637
0.008766586722110782
0.021409958701403477
0.008742376437914035
0.021411796385168737
0.008736013149913995
0.021363691223377966
0.008745353445235315
0.021359145639495637
0.008740457092378558
0.021366412151416964
0.00869668807759477
0.021341158822195432
0.008679444963715458
0.02138605778793253
0.008718383574740083
0.021439760060842656
0.00875644840016878
0.021437852424504997
0.008746073614202796
0.02137665494620109
0.008723775130606497
0.02137464893428607
0.008734252320713665
0.021354137909298417
0.008684051901036093
0.021346543014735663
0.008684997756759313
0.021391148713127216
0.008743185251034215
0.021368361515597775
0.0087033693125408
0.021316211093289242
0.008647553478400696
0.02127723191424631
0.008645467587030374
0.021197958642837248
0.008709630520359661
0.02125257163873691
0.008647441156911457
0.021206830898045786
0.008696179936463972
0.02127075845723684
0.008636188494070779
0.021199118159670995
0.008613995004142314
0.021241629022960715
0.008578258936263945
0.02129025665799634
0.008649817646817687
0.021302395445073376
0.008552578099971186
0.021260940377993975
0.008618590453146257
0.021284586772863105
0.008516957696228948
0.021267336147628407
0.00860526907574113
0.021346363258097106
0.008534886309269251
0.021219071910005657
0.008644080828626931
0.021214076685941757
0.008648725095076524
0.02120746615979763
0.008662068065320914
0.021219056381747616
0.008679091480664317
0.021250615276747615
0.008655019042382427
0.02129754966716298
0.00870904881590306
0.021406602739765523
0.00858629535626465
0.02124880977775026
0.00869260948062128
0.021198343048519232
0.008652904216958456
0.021082420921173285
0.008639797204420936
0.021177487528457974
0.008608325441464091
0.021200314906691477
0.008564334444387471
0.021294231543461623
0.008551497244030596
0.021103304586221804
0.00872073404213077
0.02133624763237247
0.008568766102261116
0.021281324264931647
0.008614540080446062
0.021512333085491258
0.008529885955171825
0.021429679944858605
0.00861898181214105
0.021259181901684163
0.008761128242410033
0.021431174890229745
0.008584293388699052
0.02134054920334882
0.008650751771438224
0.021323102462690726
0.008625013749577961
0.021367985133855915
0.008736430344123762
0.021396786132832718
0.008646232809782457
0.021175304336563373
0.008643764439258636
0.02129575573413117
0.00860840611796041
0.021214447948278807
0.008631383194725954
0.021284459084119984
0.008628379581577073
0.021347327907202066
0.008675274259872162
0.02144929602473755
0.008641387636381413
0.02129064247552388
0.008658245649032
0.02125583247927438
0.008595499996309526
0.021201180551672857
0.00863386160493983
0.021176968486114743
0.008625373312113254
0.021216431471679665
0.00858957155775436
0.02127562274770073
0.008611805923656872
0.0212884753839965
0.008756240717211022
0.02138824364080977
0.008577037067010244
0.02134986228779508
0.008641059020588062
0.021383502536009714
0.00871981481607644
0.021245881070799826
0.00880200407761318
0.021271819299065204
0.00865064568618869
0.021312512086151574
0.008792936258407272
0.02124530339262022
0.00880299900814113
0.021330146079056846
0.008664600376225082
0.021348814856803518
0.008658180248830168
0.021283193395053232
0.00883767918011517
0.021214108500480038
0.008649720218645346
0.021238471037087973
0.008652542296797829
0.02125030746131732
0.008752493231854456
0.021319202600634458
0.008615173123556486
0.021266511443217454
0.008692531976313086
0.021342443592898934
0.008558954705128576
0.02135128695559156
0.008593391821784584
0.021368194669304178
0.008580045642238203
0.02136715526809247
0.00858173416051078
0.02130744651292445
0.00876956465125254
0.021282831371482753
0.008823123767245915
0.021302455867462093
0.008708564991174894
0.021327140089513925
0.008840880143414232
0.021172488566938444
0.00879149850831437
0.021268463977115577
0.008758418547466885
0.02119147018302812
0.00856766397841846
0.021223245840931697
0.008714809676318531
0.021293800888217248
0.008624003750709356
0.02130048403878448
0.008686429651039638
0.02129500294170563
0.008548637382701953
0.021357701811492512
0.008652846703746078
0.021264066539851755
0.008603701977110438
0.02129964393002477
0.008700224711064188
0.021327714726216473
0.008674329249560247
0.02134425965549341
0.008586482484163003
0.021393364758992
0.008677008890422387
0.021415996026523568
0.008687583349426351
0.021416944006672888
0.00872302930443547
0.02148483639951815
0.008758654941398112
0.021470438559957585
0.008811379633518308
0.021468849186851886
0.00880987230612534
0.021362574878377977
0.00881497495366421
0.02127146224170151
0.008650529300702035
0.02127734051484463
0.008687275487816296
0.021391182177135953
0.008749647046072666
0.02127810769453451
0.008764725243445879
0.021401437178947096
0.008853614953582811
0.02144939874598436
0.008931809241951607
0.021341206004348245
0.008909328888595384
0.021383807216904707
0.008918021153423432
0.021341616109729036
0.008801635841197536
0.021221145746091807
0.008775005362735278
0.021244072677854105
0.00872366378355912
0.021242695866047743
0.008634623981901823
0.021270572739036993
0.008701437604787064
0.02136093368716589
0.008709906715953331
0.02134787978778262
0.008677360911822996
0.02136370168242638
0.008672020337338292
0.021385024350269226
0.008682114069931818
0.02136691184574462
0.008585526066649538
0.021416744747522524
0.008606381149231464
0.021330982320077373
0.008650289989794379
0.02149247563436822
0.008638064884718565
0.02132718332367067
0.008578983059010224
0.021253535717252553
0.008546450167502252
0.021418800495226757
0.008652246737840505
0.02145176769091954
0.008697172692359572
0.021479611988364827
0.008723817644830194
0.02149920274564203
0.008668734165566945
0.021438516456269714
0.008780823289355949
0.02142113676145889
0.008685834436538014
0.02142125975469752
0.008747346287593888
0.02131573963226563
0.008733545752705199
0.02124731910835874
0.008641280019108003
0.02144977155595199
0.008709311039073945
0.021246662674838553
0.008776043375696235
0.021322852499981972
0.008750347528332458
0.021303385592761546
0.008658275667690325
0.021283849930985345
0.008686396913352446
0.02140361642866287
0.00866759280491737
0.021305657460371136
0.008631327684113288
0.021242835406773127
0.008572313826397856
0.02125136774410331
0.008562861796688864
0.021272509024502832
0.008546524139427471
0.021430924523045895
0.008635829678815918
0.021167738594701543
0.008555132511732287
0.021203903276599628
0.008564715980196976
0.021174210543305226
0.008538628955349882
0.02126584214561993
0.008663064354610181
0.021199204402495814
0.008496924655280578
0.021311459422680725
0.008676636402451665
0.021196182837443317
0.008614713827433342
0.02132435262345007
0.008549841038496335
0.021310132430184234
0.008626207955572271
0.02131907938359861
0.008590473219908717
0.02142327614552526
0.008722876638622592
0.02120493394915868
0.008675647931702625
0.021251605177971006
0.008814674639835105
0.021338720366359053
0.008789407844515158
0.021181134246725856
0.008625675288205117
0.021092099031906737
0.008534378171665111
0.021090821715828517
0.008516599884825839
0.021108187073773915
0.008532203922124535
0.021094689999281886
0.008695961420913844
0.02102616212513301
0.008604027057994582
0.021166245611362496
0.008550237909551759
0.02113100444439449
0.008690662536292089
0.02131969071939746
0.008798723640881578
0.021382581739684575
0.008653089510351633
0.021249622407328823
0.008639953229576251
0.021125378848717017
0.008693791963284675
0.021075756317589116
0.008645912460775456
0.021135524981882415
0.008717855277795889
0.021168578480607977
0.00883874724483687
0.021089679159684665
0.00870864332927233
0.02108835158279649
0.008711827034954094
0.021079813449283127
0.008725426715969228
0.021138587627331423
0.008648403725911837
0.02126917326738906
0.008718905214513314
0.021358750587741615
0.00871118125819432
0.021286363892288836
0.008703240340806094
0.021296659274637187
0.008656685110327132
0.021332369130131045
0.008644431099505061
0.021432747126876348
0.00868618243809681
0.021285169685747823
0.008794019291951196
0.021244706021233878
0.008619818569354558
0.021218019824334258
0.008592337206665546
0.021195204076633754
0.008526519284755578
0.021242168494521436
0.008531628170804967
0.021302070811362327
0.008524705312936873
0.021453674619268594
0.008448212886320746
0.021517362750510506
0.008446037914897701
0.021523022888969293
0.008445269213241203
0.021418851302429646
0.008667821163003842
0.021319354869203288
0.008609917314277583
0.0213210375703662
0.008633482815777914
0.021336001147919354
0.008785163945678085
0.02130538658268473
0.00865879763984234
0.021312484620474362
0.008701152816818025
0.021317581933851554
0.008622519755172975
0.021213111530131105
0.008739388029545983
0.021276832435723123
0.0085984703215718
0.021210647318309094
0.008642274492766033
0.02105142635421284
0.008609783993486607
0.021083040616237114
0.008630848437594244
0.02123752309917205
0.008575387018370483
0.02123051352577853
0.008669464284094977
0.021169205656382757
0.008506517467990787
0.02127557575884672
0.008529072012500716
0.02124361421766947
0.008602839257207446
0.021370405969157936
0.008776224868948636
0.021319992649912165
0.008658764840014342
0.021358908355530688
0.008599561097173672
0.021317550768551595
0.008583429967729029
0.021173857262247117
0.008790167244670874
0.02122938248968034
0.008818965256622013
0.021393298113388765
0.008678186651583951
0.021263539024347942
0.008601807219976106
0.021347659509849758
0.008682954158138403
0.021369726161412025
0.008456588614979896
0.02118883106012948
0.008591874209607801
0.021193717602594066
0.00868393644628312
0.021227077925074726
0.00865579307601478
0.02125317812220501
0.008663379238467989
0.021184319359474076
0.008686947589520409
0.021215553587871458
0.008570930810882784
0.021389611221031914
0.008668849020805787
0.021295431745901434
0.00865986287035529
0.02147711426324157
0.008583134211507608
0.02146960863606067
0.008571294071328098
0.02133238290753305
0.008613246799040901
0.021492369368609984
0.008594256537796996
0.021458502019792887
0.00866700068397931
0.02144713579564037
0.008618516723465964
0.021460602561802846
0.008591714184393572
0.021415575279666303
0.008556360193084808
0.02123359254427765
0.008570802839193118
0.021246386722189366
0.008781394306590279
0.02112418893332744
0.00874627243020781
0.021210352214953942
0.008573687251258006
0.02142626411311228
0.008533434272821
0.02144260951814303
0.008604389377825598
0.021202735003256177
0.00875909214990271
0.021174104887327294
0.008764916544777167
0.02113677464840755
0.008681524984324578
0.021246331911140538
0.008765730245002478
0.02113456350391975
0.008719690692156053
0.021252006994870908
0.008701744916957802
0.02116987292837272
0.008651384334787857
0.021135173863710905
0.008695330931581403
0.0211094934681453
0.008638737824702593
0.021169686284971945
0.008502425583550343
0.02126695710054846
0.008462096284729192
0.021253713951977265
0.008708160225760627
0.021351797627454983
0.008550092463178017
0.021254079949564235
0.008514275532191758
0.0212033168248415
0.008569957224083262
0.02118190137357594
0.008700222899582359
0.021314476767925163
0.008600974218605912
0.02140156276317068
0.008575141247989831
0.021227410028905356
0.0087098588417168
0.021355111368733328
0.008633807324751105
0.02141087193459638
0.008589152776263287
0.021330483347710774
0.008646864832821627
0.02127291809240342
0.008721794845535836
0.021203206067085742
0.00868834160715174
0.0212498367830843
0.008628606137461248
0.021106309339839216
0.008726902378507586
0.02123917727918042
0.008790625867835872
0.021247199237029956
0.008743684885926693
0.021311756088115606
0.008705403296917585
0.021289986172877827
0.008813887035132058
0.021250918868050417
0.008843411644066178
0.0212153205226628
0.008754127142240128
0.0212181511457906
0.008726270267118051
0.02122065053939527
0.008702367968620848
0.021203394997312983
0.008683204689125062
0.021211146837707893
0.008686472460190041
0.02126516181951194
0.00869888111625299
0.021294799350065625
0.008612785066725437
0.021305508592174265
0.0085908769278739
0.021228149909650648
0.00858397908400275
0.021410600335003558
0.008583924137180543
0.021274474716243476
0.008507017365804602
0.021264532818495007
0.008633732116864213
0.02128345527438344
0.00868556820741312
0.02132905714132744
0.008606261453415864
0.021188378386882714
0.008572741816243692
0.021343887913313146
0.008521781389368004
0.021295846842387788
0.008616444303226226
0.02123951057939935
0.008739284588484062
0.021213732339325567
0.008718960145204032
0.021314384237029558
0.008641150475072672
0.021297346855073215
0.008573627332923456
0.021272330447004287
0.008609445438665538
0.021199506852831052
0.00860596899692301
0.02130055627076915
0.008504027075786404
0.02125257732540753
0.00854398159003288
0.021171936480309125
0.008487203925418295
0.021219719248718256
0.008580471197508488
0.02122762507165194
0.008739892094541532
0.021268121345253927
0.00865052336645597
0.021338087426343275
0.008579208282544899
0.02149636490168065
0.008510967408693776
0.021359593983613576
0.008574638261044758
0.021338724674019524
0.008686530219691867
0.021345163959209643
0.008612804948539563
0.021420415308194593
0.008739459151002906
0.021423157584141254
0.008733719950255002
0.021396990997068887
0.008585797951515593
0.021345192482415523
0.008575383961608526
0.02132503850435022
0.008632632706239448
0.021402256283471602
0.00859687042900888
0.021275476201893302
0.008617654403543826
0.021297046695954114
0.008696914332873193
0.02133216112077221
0.008573118146850767
0.021407426544795178
0.008551083523739546
0.02146515122035946
0.0086247870706341
0.021474824423023717
0.00853152664056857
0.021484083151470348
0.008630218654539166
0.021347456627975638
0.00856667892526682
0.021366770861563168
0.008653587202531916
0.021264635639997184
0.008563564987648058
0.021303712985810606
0.008538847830642468
0.021276569242974486
0.00853088381449999
0.0213129591063339
0.008559974384807779
0.021329461621926428
0.008597530501540052
0.021283144371817612
0.008581449039846633
0.02129867534578992
0.008707765296423283
0.021245481613245375
0.008627588791593643
0.02120294286886616
0.00876043843619882
0.021173148275671974
0.008643038020655107
0.021328057398999144
0.008714185111180385
0.021264014868726477
0.008612680193811695
0.021373600162067904
0.008677288201931343
0.021390080114326852
0.008661980510594604
0.02132212547630645
0.00871338442937697
0.021336953364253345
0.008544351277951895
0.021302143127896522
0.00854743021126556
0.021297703522852464
0.008645485118139064
0.021255793970088616
0.008693064894290429
0.021112334152835567
0.008617223748113745
0.021103470434873744
0.00853875189285808
0.021227310522898706
0.008692492268769366
0.021245742382078856
0.008569039367340358
0.02124719711360011
0.008688546866779834
0.021265020441710445
0.008621162869903711
0.021163099536628566
0.00859829484450197
0.021160151034999544
0.008591598197490358
0.021355232175018186
0.008798187594955686
0.021349888158201203
0.008687351363473022
0.02133797397648139
0.008620023553862228
0.02133948426600542
0.008665124431731959
0.02133993284659755
0.008795270432716669
0.021349760209165625
0.008783660425093284
0.02134990927503628
0.008775210465227511
0.021375226906818708
0.008719782567511679
0.02141934145667296
0.008832503514061289
0.021402211039223497
0.008710119739289353
0.021273993420625484
0.008642338025110288
0.021214324029318138
0.008765258123495816
0.02123699806376021
0.008763064430507263
0.02135116815455184
0.008742086335477631
0.021397781657983186
0.008795826834137075
0.02148169205640755
0.00872719303072596
0.02154203655998184
0.008626503392370635
0.021474877321276058
0.008822590644984507
0.021451523057090173
0.008679449348361155
0.021438350773983803
0.00869018895029402
0.021277463891979452
0.008700470458345993
0.021247119779602697
0.008709338293804837
0.02144152967012078
0.00871201311149553
0.021422193320672335
0.008614012430367562
0.021306456540749388
0.00866719009885857
0.021170165076267018
0.00858961005979835
0.021199119557228654
0.008610242875567194
0.02132636911027645
0.008700238361215572
0.021390587393132952
0.00862778620038968
0.021575057695214124
0.008463454243899667
0.02134256570433423
0.008641529939030074
0.021451615569981087
0.008662595734872859
0.021373795605470824
0.008693828896926038
0.0212639974894381
0.008529634688437813
0.021341646667106043
0.008519857328403315
0.021339252980095025
0.008609017466509399
0.021176896163343256
0.00867273847372109
0.021435441682133488
0.00868680053831599
0.02140025825218108
0.00881791202004783
0.02142218658109872
0.008681882344981687
0.021239446592522627
0.008679927736865403
0.0213889111072029
0.008812434403100705
0.021229169979244022
0.008672857899462991
0.021384844172397416
0.008811892394315995
0.021285622700867785
0.008671217742589431
0.021420784661799832
0.008809957258012268
0.021351942760829575
0.008828168671903561
0.021551401232612687
0.008744676734192623
0.021384834375268114
0.008927909034123747
0.021407647159454715
0.00879915082705092
0.021344930343729328
0.008738184457610628
0.02140333985892676
0.008653486433359097
0.021256803280120487
0.00858465366055109
0.021428543999218258
0.008529899788177888
0.0212110786309914
0.008487279444234606
0.02131642005288419
0.008681812956160707
0.02125042866128408
0.008530153440397195
0.021153905286817987
0.0085766878189524
0.02140642144346174
0.008744785344746073
0.02147633415730931
0.008599362322870395
0.021530334177404967
0.008506397169224246
0.021173788682733608
0.008741492489593092
0.021174336374886648
0.00862151064127763
0.021194270433493836
0.00868374973206398
0.021125521275574762
0.008681289419844586
0.021223396449602878
0.008780991852183407
0.02124754985922858
0.00876669971058708
0.021463027680193432
0.008623268583223237
0.021340803740613565
0.008753299102525113
0.021498207075433217
0.008647203615598472
0.021267656737843896
0.00861893354664558
0.021324389868960184
0.008754284689417568
0.021424492525720543
0.008632127316750041
0.021182732598263275
0.008687523814217788
0.021244973195941364
0.008668377661230775
0.021327602169267615
0.008651583069613597
0.02129218947669724
0.00869145697885138
0.021310453782603295
0.008623041107247558
0.021504213420534653
0.008485980465836035
0.02120169622626687
0.008545519690641424
0.02134153207692748
0.008605573035758832
0.021139025206598785
0.008654434598202696
0.021256708607158364
0.008650350953998591
0.02120377017946424
0.008706864276998095
0.021154540843389635
0.008703704321576959
0.021178359032695847
0.008644379024842835
0.021199666283792634
0.00861347456573818
0.02120925867056495
0.008544208959691747
0.02132025490994229
0.008562011298611519
0.021217042456870228
0.008539934797047255
0.021317017386739242
0.008574948977169799
0.02123725991730192
0.008564288557718437
0.02113606424023175
0.008630344385848223
0.021126385061220873
0.008572243929713336
0.021177628839763114
0.008493683311392056
0.0210974173282255
0.008461795733247955
0.02127941739530817
0.008594927601400446
0.021301600673787602
0.00867550965746671
0.021320045432113143
0.008508220005420392
0.021414915658652826
0.0085608360377398
0.021410906697150255
0.008550827572279592
0.021458151666694895
0.00851613345082726
0.02127151251789937
0.008549695052210518
0.021378543094498454
0.008513597052242038
0.02135948558914481
0.008625723734839566
0.021233906396249308
0.00860072643924269
0.021203736940271792
0.008560976094189416
0.02129736495021192
0.008753711492368251
0.02130473022385505
0.008621714326118928
0.021224243205192925
0.00867230524506089
0.021342651710774645
0.008614548616132051
0.0213788397264091
0.008750648559228065
0.021311249821328808
0.008628137965343381
0.021216959102251298
0.008775026005592318
0.021367661235851626
0.00870439009531818
0.02124045874077602
0.008822901128016546
0.021295503371585114
0.008668113182173105
0.021172363068078362
0.00861407389311693
0.02117659290998428
0.008641241823665657
0.021271606010526405
0.008646448117838492
0.021253243776526938
0.008741555952962459
0.021205733892387595
0.008650086958121098
0.021293091075917113
0.008650302487875516
0.021288265508650706
0.008733096614381663
0.021175915742613946
0.008679718537077016
0.021392773910884403
0.008629609461563523
0.02134506671749869
0.008631743031263035
0.021321366376384637
0.008655360666318949
0.02126644446038505
0.008786850194544713
0.021234687272700725
0.008730805182405958
0.021229627558312085
0.008784731190428854
0.02116730643607498
0.008666399240343051
0.021168482077587775
0.008705975487948546
0.021176763886747635
0.0086731873230422
0.021181567969470228
0.008552276672646329
0.021298224942049762
0.008524732115671207
0.021243574935796927
0.008618043227830396
0.021415481586944927
0.008548654997856186
0.021271082095270188
0.008720777671215367
0.021264389425616606
0.008779629651800893
0.02125769074242183
0.008652281431763486
0.021219892492970727
0.008770440334350881
0.02114907245284414
0.008740185956087764
0.02121510286664866
0.008736095023194041
0.02128871637609742
0.008679227344069269
0.02137101237219875
0.008693245271635749
0.021270353399394964
0.008797295097234183
0.02124847548812256
0.008784071847639617
0.02120068700812905
0.008806456169375622
0.02120798148660083
0.008777399951686206
0.021257615678323728
0.008701619488384176
0.02121203348361608
0.008762476118161978
0.02127311052654109
0.008771811711384414
0.021210670149861072
0.00884398258017461
0.021239078229778195
0.008712433310945993
0.021196080440854234
0.008860549023438786
0.021174571938786226
0.008811307263611854
0.02120782099792067
0.008788164433129294
0.02115501143859185
0.008781239049973277
0.0210789571574867
0.008779201597335386
0.021067445283503534
0.008797333961513212
0.021020985151954486
0.00884426274741247
0.02104303924520395
0.008831516340708164
0.021115910399466552
0.008824463670382626
0.02112552138770806
0.008777272264788829
0.02122359953397837
0.008646736602256736
0.02138907329513609
0.008533345964171392
0.02121159092231143
0.008549630591819695
0.0211052494125563
0.008591812618166595
0.021199375822078856
0.008583827447978124
0.021226934505854802
0.008695821164776995
0.021265157098377896
0.00869744691337807
0.021288811772989163
0.008704723142769022
0.02134483411104407
0.008687567082625582
0.021399419141947904
0.008706198344758335
0.02126048856619068
0.008802421982173268
0.02129106710435314
0.00866359060019191
0.021241296255361523
0.008645697845229004
0.021211142673493683
0.008790303913299135
0.02129610990599924
0.008762136590196508
0.021224640294190748
0.0086852606414327
0.021313692101271
0.008569084078927413
0.021347257682795547
0.008695624863848048
0.02132145686595736
0.008493197520496605
0.021375706067458616
0.008519837950428174
0.021264591662012295
0.008608528184537802
0.021222366581871658
0.008564182960898151
0.02121647482611489
0.008720417876976484
0.021122775598067384
0.008647085089941439
0.021301218977317706
0.008652946786301009
0.021159986988870876
0.008592712921481048
0.021372773050363145
0.00861114223659529
0.021247163377395163
0.008775208157498996
0.021262409215449963
0.008698509150330781
0.021208065214310165
0.008738384747887771
0.021232885542000538
0.008773573065052847
0.0212748410528765
0.00872444240644565
0.02120930283085884
0.00867056409191579
0.021292347961521692
0.00876223177955087
0.021248479066152546
0.008587124759152643
0.021230180920622305
0.008510441888616525
0.021266310947632722
0.00865226146028349
0.021166153007882
0.00849348636236517
0.021156502775501233
0.008686776332278687
0.021117010230688824
0.008577128417142947
0.021144379234645592
0.008604711050168789
0.021113386009512146
0.008568388185496269
0.02114396977335891
0.008579030844254272
0.021259968187974772
0.008726715529906228
0.02127957615741701
0.008600581834002956
0.021314614506229446
0.008726160019248221
0.021237721200239958
0.008551043108128282
0.021306697236630392
0.008657153522764173
0.021239416172642668
0.008484141986483156
0.02115475816683077
0.00858656475378197
0.021228299399671607
0.008514289252892078
0.02115664554111703
0.008542665088144982
0.02107101941541198
0.008527280318220084
0.021036631565640465
0.008528232322667365
0.02111283611037038
0.00854770820934044
0.02111349745153458
0.00864233626345451
0.021274804860554563
0.008657443624398775
0.021216201012460932
0.008571419441796707
0.021318524803213064
0.008564698154222432
0.021206215388205545
0.00865427079452082
0.021219337335299616
0.008684780707701907
0.021321484617249767
0.008675597215985667
0.021333272207340444
0.008731479864793166
0.021351777261660453
0.008652123021498146
0.02116965427410511
0.008664163981902362
0.021273755039778873
0.008670534753107167
0.021271456974011196
0.00871589306565204
0.02137628547418416
0.008831768360547209
0.021280482503510775
0.008796027885531665
0.021309288544989553
0.008752223357209335
0.021263256078533257
0.0087315623721314
0.021380610237136215
0.008666096588953705
0.02139923464627797
0.008690905530787985
0.021280327240939142
0.008606005745138787
0.0212325514197792
0.008616569548588401
0.02123084574771692
0.008611139660399338
0.021205933513663386
0.008589335191431248
0.02106052683014849
0.008549610850059187
0.0211594811117313
0.00862769692857106
0.02133612584515214
0.00863812548295158
0.02122865424909737
0.008631057025399083
0.02113072477585915
0.008583562586238028
0.0213184892937668
0.008682900168109456
0.02134291353925103
0.00869355918902439
0.02144418076266163
0.008649541274268388
0.02131601308734948
0.008698146976424521
0.02137828889999498
0.008756397817385513
0.02139096226470808
0.008724111601356254
0.02130251373426495
0.008741437438467876
0.021178288927842435
0.008635615013377161
0.021159124902303064
0.008601511657409128
0.021307914504411912
0.008584350361104533
0.021170288472202703
0.008624394618799311
0.021444227663121342
0.008577069528945441
0.021454963938794827
0.00858084494784836
0.02154467087098873
0.008541051702539394
0.021562681563859133
0.008452146146499749
0.02134246610895727
0.008546600959401227
0.021550808585625397
0.00856592375178373
0.02146564625368982
0.00870484062688646
0.021541913326516355
0.008623894883868945
0.02146590606284135
0.008605810920779333
0.02145312109225813
0.008653387646858432
0.021442871771039745
0.008716864659082463
0.02142071578512044
0.008766744500918053
0.021405110237855095
0.008688376190899986
0.02131870532403499
0.00875760227366903
0.021382528360778065
0.008762248251576277
0.021211882383669958
0.008555470614543544
0.02144172818247416
0.008613531995455028
0.021476966642308474
0.008636749491995365
0.021265308911487858
0.008722923038889888
0.021503178940740154
0.008669738457468809
0.02140043316737432
0.008762607051752504
0.021455711946958955
0.00876586019004964
0.02142244886347022
0.008589841774099658
0.02112848643622159
0.008483055380748006
0.02106803428705302
0.008476186111960745
0.02107791723221348
0.00851561030290127
0.021377834893683136
0.008705246284728962
0.02145642530742678
0.00865110169683637
0.021359382942631695
0.008825953609236069
0.02136705291938349
0.008812242189052648
0.02134930418263246
0.008799525436247402
0.021389364058228336
0.008794295277082372
0.021341416614882737
0.008808231590066076
0.021368837374423157
0.008785544093542829
0.02153289759319666
0.008832873197474857
0.021357967695909585
0.008823001747562599
0.02126411540724472
0.008594220592252703
0.02138840802692593
0.008581823118604096
0.0213568565223092
0.008688181596263302
0.02139987338240635
0.00860043671274481
0.021360357474113367
0.008663558534565513
0.021331018315046482
0.008705610395268173
0.02124148987725252
0.008588902948390396
0.021308299685862182
0.008582189715233977
0.021298348620109184
0.00853241772552165
0.021384472976984863
0.008649124730668513
0.021335599841702444
0.008677005582027893
0.021269496990475898
0.00853131797555917
