0.018553031040251952
0.013867886443421183
0.01854898986771783
0.014006936972709516
0.01854905071950654
0.013951063535302998
0.01852962661453117
0.013960939859544384
0.018451020063743842
0.013873271862587333
0.018455054616439103
0.01388229542477387
0.01846322996768112
0.01388179099449583
0.018425657990358613
0.013881017530926515
0.018390030298208248
0.01386264468126615
0.018306518197800208
0.013873483228673282
0.018282840722913793
0.013866397146076181
0.018335152515019437
0.013873172364566234
0.018381416065263556
0.013937726825028685
0.01829056818319651
0.013861791083033318
0.018338180892275648
0.013864138872648386
0.018256775714735433
0.013826994744868393
0.01824432811100857
0.013818284424508208
0.018246167098178414
0.013818291622847164
0.018315785332856573
0.013880881450985509
0.01825915244558707
0.013973412363726586
0.018335152845154735
0.013818183474100914
0.01824142326027941
0.013741003348727975
0.018261415540998718
0.01368929338196544
0.018190822493491385
0.013735518007295524
0.01822463553720985
0.013821258735422377
0.018123497367510642
0.013836293143874604
0.01817078934328608
0.013789607236075977
0.018175926723788715
0.013803721485073453
0.018067418022137363
0.013910450913177694
0.018188067147467676
0.013726675110853702
0.018122519268738518
0.013748264621152199
0.018003177116355615
0.013775014328553515
0.01788906077274188
0.013834489598404161
0.017810678028512092
0.0138164401098595
0.017956487321943167
0.013782431976036062
0.0177836202431584
0.013804366484337308
0.018080807273053123
0.013872944071705131
0.018110904919668373
0.013719342774459109
0.018026932275460116
0.013825689329936443
0.018354896520577823
0.01386450554503827
0.018969289030883015
0.013653450303951178
0.020205120428259064
0.0134344202432396
0.02217601542640405
0.013308074562320325
0.026312569443416128
0.013069636152163578
0.029925683530101367
0.012918904103035886
0.0357706986898708
0.012647483241548699
0.041776451432440034
0.012360363980287331
0.051877503028517236
0.011710783279442593
0.060263051795635514
0.01095662517562135
0.06933065508499546
0.010054684232779606
0.07926307833358628
0.009174784192732339
0.09545870391241064
0.008201578366207975
0.11183268435895974
0.007524044394194305
0.12309516928558814
0.006645636313656017
0.13729926610834997
0.0057745659089155615
0.16007052673667768
0.004677008224146722
0.16569269819881166
0.00464689530637869
0.1724861251761496
0.004373780976091472
0.20784468327428304
0.0021995155876424703
0.2239643665776136
0.0024474742830144815
0.23450270035973084
0.0021533022019064405
0.23744525835475114
0.0015715729877399266
0.2500068396648584
-0.0005282959752846098
0.2903631127088039
-0.0017179189568878438
0.31215242936705856
-0.002692662079306251
0.3270823056433755
-0.004455224212519758
0.36237395376545123
-0.005169807122435966
0.3825485982087405
-0.008292366662676404
0.43850948073442825
-0.011907395019247312
0.4516186420812702
-0.012872198727123996
0.46759655478848106
-0.01341338983750615
0.5102428096297882
-0.016623147125379253
0.5512822401960228
-0.020986391735329117
0.5042601153171867
-0.024976222197987497
0.5294231562966342
-0.02703263747728731
0.5521213232486273
-0.02964365727358908
0.5686202284275464
-0.031939376868381664
0.5722060444855789
-0.032389186885690535
0.5854675166314417
-0.029216193610080068
0.5897614988295843
-0.03156954619690537
0.6212605781399292
-0.031608122708469286
0.6305527566240189
-0.014732615399824183
0.6305527566240189
-0.014732615399824183
0.6328347293872341
-0.01817748456683206
0.6314913185722565
-0.014618609948141053
0.9127118348990134
-0.08364774503331401
0.9317943137323024
-0.0874486315509294
